{
"url": "http://92.222.83.28/parent/whatsapp.php?group_id=2117263245&time_frame=day"
        }

{
"meta": [],
        "data": {
        "statistics": {
        "time_frame": "day",
                "date_range": "20170121000000-20170121212948",
                "time_zone": "+0100",
                "numbers": [
                        524,
                        832,
                        898,
                        123,
                        982,
                        676,
                        824,
                        725,
                        525,
                        244,
                        201,
                        778,
                        898,
                        445,
                        916,
                        849,
                        171,
                        396,
                        852,
                        850,
                        750,
                        903
                ]
        },
                "nude": {
                "count": 2
                },
                "chats": [
                {
                "id": "199151101",
                        "first_name": "Ruben",
                        "last_name": "Ruiz",
                        "phone_number": "34634511601",
                        "count": 101,
                        "has_text": false,
                        "has_image": false,
                        "has_video": false,
                        "has_audio": true,
                        "numbers": [
                                562,
                                123,
                                673,
                                448,
                                603,
                                129,
                                490,
                                495,
                                557,
                                880,
                                510,
                                451,
                                433,
                                457,
                                575,
                                980,
                                815,
                                296,
                                730,
                                961,
                                353,
                                328
                        ],
                        "nude": {
                        "count": 8
                        }
                },
                {
                "id": "1460682083",
                        "first_name": "Roberto",
                        "last_name": "Craft",
                        "phone_number": "34634710846",
                        "count": 83,
                        "has_text": true,
                        "has_image": false,
                        "has_video": true,
                        "has_audio": false,
                        "numbers": [
                                459,
                                366,
                                369,
                                646,
                                476,
                                949,
                                157,
                                938,
                                973,
                                730,
                                386,
                                576,
                                759,
                                776,
                                971,
                                316,
                                655,
                                480,
                                667,
                                989,
                                838,
                                242
                        ],
                        "nude": {
                        "count": 10
                        }
                },
                {
                "id": "100675839",
                        "first_name": "Earle",
                        "last_name": "Elnora Blair",
                        "phone_number": "34634651751",
                        "count": 839,
                        "has_text": true,
                        "has_image": false,
                        "has_video": false,
                        "has_audio": false,
                        "numbers": [
                                439,
                                698,
                                612,
                                692,
                                926,
                                419,
                                403,
                                385,
                                685,
                                673,
                                931,
                                161,
                                622,
                                988,
                                1000,
                                594,
                                718,
                                385,
                                169,
                                476,
                                160,
                                140
                        ],
                        "nude": {
                        "count": 7
                        }
                },
                {
                "id": "1759366161",
                        "first_name": "Dwight",
                        "last_name": "Cochran Lamb",
                        "phone_number": "34634714964",
                        "count": 161,
                        "has_text": true,
                        "has_image": true,
                        "has_video": false,
                        "has_audio": true,
                        "numbers": [
                                521,
                                359,
                                703,
                                358,
                                502,
                                671,
                                910,
                                841,
                                369,
                                522,
                                533,
                                294,
                                841,
                                836,
                                579,
                                526,
                                508,
                                510,
                                588,
                                129,
                                497,
                                587
                        ],
                        "nude": {
                        "count": 6
                        }
                },
                {
                "id": "1436321477",
                        "first_name": "Mario",
                        "last_name": "Andrews",
                        "phone_number": "34634214575",
                        "count": 477,
                        "has_text": true,
                        "has_image": false,
                        "has_video": true,
                        "has_audio": false,
                        "numbers": [
                                872,
                                694,
                                591,
                                933,
                                734,
                                283,
                                647,
                                254,
                                542,
                                350,
                                512,
                                945,
                                922,
                                422,
                                785,
                                290,
                                844,
                                317,
                                484,
                                685,
                                152,
                                964
                        ],
                        "nude": {
                        "count": 2
                        }
                },
                {
                "id": "141979745",
                        "first_name": "Staci",
                        "last_name": "Edna Simmons",
                        "phone_number": "34634561142",
                        "count": 745,
                        "has_text": false,
                        "has_image": false,
                        "has_video": false,
                        "has_audio": true,
                        "numbers": [
                                473,
                                699,
                                591,
                                871,
                                285,
                                214,
                                985,
                                157,
                                809,
                                576,
                                990,
                                543,
                                759,
                                637,
                                697,
                                301,
                                887,
                                209,
                                245,
                                808,
                                532,
                                930
                        ],
                        "nude": {
                        "count": 10
                        }
                },
                {
                "id": "1817648014",
                        "first_name": "Eldon",
                        "last_name": "Taylor",
                        "phone_number": "34634375704",
                        "count": 14,
                        "has_text": true,
                        "has_image": true,
                        "has_video": false,
                        "has_audio": true,
                        "numbers": [
                                246,
                                483,
                                961,
                                299,
                                446,
                                171,
                                761,
                                820,
                                771,
                                351,
                                690,
                                957,
                                466,
                                675,
                                113,
                                275,
                                250,
                                103,
                                718,
                                909,
                                640,
                                415
                        ],
                        "nude": {
                        "count": 2
                        }
                },
                {
                "id": "995565940",
                        "first_name": "Juliana",
                        "last_name": "Bishop",
                        "phone_number": "34634526328",
                        "count": 940,
                        "has_text": false,
                        "has_image": true,
                        "has_video": true,
                        "has_audio": true,
                        "numbers": [
                                524,
                                355,
                                334,
                                956,
                                285,
                                333,
                                331,
                                431,
                                716,
                                292,
                                631,
                                161,
                                364,
                                392,
                                882,
                                134,
                                643,
                                571,
                                991,
                                109,
                                246,
                                104
                        ],
                        "nude": {
                        "count": 3
                        }
                },
                {
                "id": "2019558162",
                        "first_name": "Reyes",
                        "last_name": "Romero",
                        "phone_number": "34634396343",
                        "count": 162,
                        "has_text": true,
                        "has_image": true,
                        "has_video": true,
                        "has_audio": true,
                        "numbers": [
                                107,
                                903,
                                305,
                                647,
                                317,
                                415,
                                173,
                                741,
                                671,
                                408,
                                697,
                                856,
                                641,
                                929,
                                287,
                                356,
                                221,
                                819,
                                418,
                                485,
                                210,
                                299
                        ],
                        "nude": {
                        "count": 5
                        }
                },
                {
                "id": "1916126580",
                        "first_name": "Sasha",
                        "last_name": "Hernandez",
                        "phone_number": "34634753836",
                        "count": 580,
                        "has_text": true,
                        "has_image": true,
                        "has_video": true,
                        "has_audio": false,
                        "numbers": [
                                771,
                                511,
                                764,
                                917,
                                515,
                                949,
                                313,
                                523,
                                851,
                                518,
                                170,
                                167,
                                834,
                                244,
                                809,
                                505,
                                552,
                                506,
                                361,
                                193,
                                434,
                                548
                        ],
                        "nude": {
                        "count": 4
                        }
                },
                {
                "id": "1174844706",
                        "first_name": "Tina",
                        "last_name": "Collier",
                        "phone_number": "34634555252",
                        "count": 706,
                        "has_text": true,
                        "has_image": false,
                        "has_video": false,
                        "has_audio": false,
                        "numbers": [
                                367,
                                768,
                                941,
                                478,
                                968,
                                460,
                                231,
                                739,
                                871,
                                895,
                                655,
                                386,
                                844,
                                868,
                                810,
                                694,
                                386,
                                880,
                                761,
                                220,
                                123,
                                570
                        ],
                        "nude": {
                        "count": 6
                        }
                },
                {
                "id": "1561077601",
                        "first_name": "Earlene",
                        "last_name": "Church",
                        "phone_number": "34634575938",
                        "count": 601,
                        "has_text": true,
                        "has_image": false,
                        "has_video": true,
                        "has_audio": true,
                        "numbers": [
                                976,
                                887,
                                669,
                                410,
                                435,
                                118,
                                865,
                                702,
                                787,
                                806,
                                179,
                                754,
                                265,
                                311,
                                493,
                                136,
                                206,
                                147,
                                423,
                                950,
                                916,
                                232
                        ],
                        "nude": {
                        "count": 7
                        }
                },
                {
                "id": "837603518",
                        "first_name": "Ruth",
                        "last_name": "Fannie Glenn",
                        "phone_number": "34634302402",
                        "count": 518,
                        "has_text": false,
                        "has_image": true,
                        "has_video": true,
                        "has_audio": false,
                        "numbers": [
                                112,
                                404,
                                423,
                                136,
                                875,
                                949,
                                612,
                                850,
                                836,
                                281,
                                259,
                                270,
                                299,
                                124,
                                873,
                                987,
                                830,
                                953,
                                741,
                                996,
                                263,
                                233
                        ],
                        "nude": {
                        "count": 1
                        }
                },
                {
                "id": "1829274458",
                        "first_name": "Will",
                        "last_name": "Rory Mann",
                        "phone_number": "34634369680",
                        "count": 458,
                        "has_text": true,
                        "has_image": true,
                        "has_video": false,
                        "has_audio": true,
                        "numbers": [
                                280,
                                455,
                                319,
                                196,
                                588,
                                863,
                                399,
                                600,
                                267,
                                722,
                                637,
                                141,
                                671,
                                249,
                                891,
                                506,
                                430,
                                150,
                                676,
                                630,
                                175,
                                549
                        ],
                        "nude": {
                        "count": 6
                        }
                },
                {
                "id": "1695687586",
                        "first_name": "Tamara",
                        "last_name": "Trina Massey",
                        "phone_number": "34634905256",
                        "count": 586,
                        "has_text": true,
                        "has_image": true,
                        "has_video": false,
                        "has_audio": false,
                        "numbers": [
                                501,
                                356,
                                901,
                                665,
                                489,
                                933,
                                935,
                                670,
                                388,
                                253,
                                767,
                                876,
                                115,
                                165,
                                475,
                                282,
                                787,
                                111,
                                324,
                                458,
                                260,
                                215
                        ],
                        "nude": {
                        "count": 9
                        }
                },
                {
                "id": "2079117583",
                        "first_name": "Helga",
                        "last_name": "Villarreal",
                        "phone_number": "34634590920",
                        "count": 583,
                        "has_text": true,
                        "has_image": true,
                        "has_video": true,
                        "has_audio": true,
                        "numbers": [
                                265,
                                540,
                                221,
                                341,
                                989,
                                737,
                                246,
                                490,
                                994,
                                147,
                                154,
                                483,
                                980,
                                989,
                                153,
                                367,
                                242,
                                820,
                                242,
                                258,
                                885,
                                618
                        ],
                        "nude": {
                        "count": 4
                        }
                },
                {
                "id": "673379308",
                        "first_name": "Phoebe",
                        "last_name": "Robertson",
                        "phone_number": "34634671718",
                        "count": 308,
                        "has_text": false,
                        "has_image": true,
                        "has_video": false,
                        "has_audio": true,
                        "numbers": [
                                630,
                                665,
                                129,
                                791,
                                780,
                                893,
                                382,
                                946,
                                433,
                                503,
                                286,
                                421,
                                239,
                                433,
                                811,
                                233,
                                480,
                                866,
                                616,
                                460,
                                854,
                                669
                        ],
                        "nude": {
                        "count": 7
                        }
                },
                {
                "id": "1979467670",
                        "first_name": "Geoffrey",
                        "last_name": "Oliver",
                        "phone_number": "34634996040",
                        "count": 670,
                        "has_text": true,
                        "has_image": true,
                        "has_video": true,
                        "has_audio": false,
                        "numbers": [
                                488,
                                871,
                                254,
                                373,
                                488,
                                595,
                                945,
                                118,
                                259,
                                975,
                                810,
                                939,
                                868,
                                191,
                                885,
                                300,
                                594,
                                171,
                                621,
                                734,
                                504,
                                432
                        ],
                        "nude": {
                        "count": 9
                        }
                },
                {
                "id": "345315317",
                        "first_name": "Annabelle",
                        "last_name": "Lott",
                        "phone_number": "34634884042",
                        "count": 317,
                        "has_text": false,
                        "has_image": false,
                        "has_video": true,
                        "has_audio": false,
                        "numbers": [
                                297,
                                483,
                                344,
                                151,
                                152,
                                972,
                                147,
                                540,
                                842,
                                301,
                                814,
                                330,
                                796,
                                759,
                                349,
                                956,
                                733,
                                158,
                                894,
                                600,
                                249,
                                779
                        ],
                        "nude": {
                        "count": 8
                        }
                },
                {
                "id": "895441482",
                        "first_name": "Damien",
                        "last_name": "Winters",
                        "phone_number": "34634743357",
                        "count": 482,
                        "has_text": false,
                        "has_image": true,
                        "has_video": true,
                        "has_audio": false,
                        "numbers": [
                                850,
                                421,
                                477,
                                353,
                                754,
                                343,
                                237,
                                952,
                                727,
                                481,
                                102,
                                779,
                                453,
                                150,
                                319,
                                294,
                                352,
                                132,
                                525,
                                148,
                                791,
                                774
                        ],
                        "nude": {
                        "count": 1
                        }
                }
                ]
        },
        "pagination": {
        "eof": false,
                "next_url": "http://92.222.83.28/parent/whatsapp.php?time_frame=day&page=2"
        }
}